[ {
  "ltid" : "d39e25a3-2ecc-371f-a5dc-17cfa1008757",
  "exp" : [ {
    "s" : 3827318400,
    "d" : 19800,
    "r" : 2.0
  } ]
}, {
  "ltid" : "d3a7e5dd-3810-5aef-b0ab-74bbffd09f33",
  "exp" : [ {
    "s" : 3832218000,
    "d" : 16200,
    "r" : 2.0
  } ]
}, {
  "ltid" : "d3b4ce0b-6258-10c4-da36-21fda4e81f36",
  "exp" : [ {
    "s" : 3832228800,
    "d" : 12600,
    "r" : 2.0
  } ]
} ]