[ {
  "ltid" : "f9ca4a39-c351-3506-bd7c-913d2e43b669",
  "exp" : [ {
    "s" : 3827386800,
    "d" : 12600,
    "r" : 3.0
  } ]
}, {
  "ltid" : "f9eae59c-894f-c47e-3e51-d21addaa2b87",
  "exp" : [ {
    "s" : 3832590600,
    "d" : 5400,
    "r" : 2.0
  } ]
} ]